# File exported by Houdini 18.5.532 (www.sidefx.com)
# 18 points
# 54 vertices
# 13 primitives
# Bounds: [-8.62500095, 0, -9.95929337] to [8.62500095, 1.14999998, 9.95929241]
g 
v 8.62500095 0 -4.97964621
v -4.76837158e-07 0 -9.95929337
v -8.62500095 0 -4.97964621
v -8.62500095 0 4.97964716
v 9.53674316e-07 0 9.95929241
v 8.625 0 4.97964764
v 8.33750057 1.14999998 -4.81365776
v 8.33749962 1.14999998 4.81365967
v 9.53674316e-07 1.14999998 9.62731647
v -8.33750057 1.14999998 4.81365871
v -8.33750153 1.14999998 -4.81365871
v -4.76837158e-07 1.14999998 -9.62731647
v 8.625 0.862499952 4.97964764
v 8.62500095 0.862499952 -4.97964621
v -4.76837158e-07 0.862499952 -9.95929337
v -8.62500095 0.862499952 -4.97964621
v -8.62500095 0.862499952 4.97964716
v 9.53674316e-07 0.862499952 9.95929241
vt 0.884130001 0.721370041 0
vt 0.499977469 0.943146288 0
vt 0.115837172 0.721348464 0
vt 0.115849659 0.277774543 0
vt 0.500002146 0.0559981093 0
vt 0.88414228 0.277795851 0
vt 0.942602396 0.729019344 0
vt 0.902863026 0.729018152 0
vt 0.902875781 0.270148546 0
vt 0.942615032 0.270149529 0
vt 0.920002937 0.230981827 0
vt 0.900132537 0.265396833 0
vt 0.502746165 0.0359510705 0
vt 0.522616744 0.00153636187 0
vt 0.477390587 0.00153493136 0
vt 0.497259259 0.0359507427 0
vt 0.0998599976 0.265374243 0
vt 0.0799913257 0.230958432 0
vt 0.0573773235 0.27012527 0
vt 0.0971164852 0.270126104 0
vt 0.0971038491 0.728996038 0
vt 0.057364583 0.728994906 0
vt 0.0799764842 0.768162429 0
vt 0.0998470634 0.733747721 0
vt 0.497233391 0.963193536 0
vt 0.477362871 0.997608244 0
vt 0.522588968 0.997609437 0
vt 0.502720296 0.963193834 0
vt 0.900119543 0.733769953 0
vt 0.919988275 0.768185794 0
g 
f 7/1 12/2 11/3 10/4 9/5 8/6
f 1/7 14/8 13/9 6/10
f 6/11 13/12 18/13 5/14
f 5/15 18/16 17/17 4/18
f 4/19 17/20 16/21 3/22
f 3/23 16/24 15/25 2/26
f 2/27 15/28 14/29 1/30
f 9/5 18/13 13/12 8/6
f 10/4 17/17 18/16 9/5
f 11/3 16/21 17/20 10/4
f 12/2 15/25 16/24 11/3
f 7/1 14/29 15/28 12/2
f 8/6 13/9 14/8 7/1
