# Blender v2.90.0 OBJ File: 'Mountain.blend'
# www.blender.org
mtllib Mountain.mtl
o Montain_Cone.001
v 0.000000 0.018183 -8.830000
v 7.647005 0.018183 -4.414999
v 7.647004 0.018183 4.415000
v -0.000001 0.018183 8.830000
v -7.647005 0.018183 4.414999
v -7.647005 0.018183 -4.414999
v 0.000000 7.938183 0.000000
v -0.000000 3.589676 4.848146
v 3.860806 3.939548 -2.229037
v -3.464945 4.349541 2.000487
v 0.000000 4.011721 -4.377609
v 3.834176 3.967128 2.213663
v -4.184507 3.604290 -2.415926
v -1.409185 4.042643 -3.529541
v -3.199078 3.532046 -3.065409
v 3.031642 3.796809 2.866894
v -3.934603 3.863116 1.120891
v 4.023527 3.771018 -0.049515
v -2.219773 2.793012 4.454759
v -1.790787 3.643581 3.754136
v 1.496878 3.387119 4.209754
v 2.850667 3.414567 -3.397541
v 2.599790 0.860811 -6.389565
v 1.465798 3.902969 -3.652577
vt 0.250000 0.490000
vt 0.250000 0.368984
vt 0.320662 0.423669
vt 0.457846 0.370000
vt 0.359360 0.251346
vt 0.457846 0.130000
vt 0.332400 0.172078
vt 0.250000 0.010000
vt 0.189666 0.128919
vt 0.042154 0.130000
vt 0.750000 0.490000
vt 0.957846 0.370000
vt 0.957846 0.130000
vt 0.750000 0.010000
vt 0.542154 0.130000
vt 0.542154 0.370000
vt 0.143057 0.219534
vt 0.042154 0.370000
vt 0.163049 0.333318
vt 0.354213 0.189833
vt 0.250000 0.250000
vt 0.136265 0.315665
vt 0.201326 0.147962
vt 0.155823 0.195627
vt 0.354937 0.310585
vt 0.327481 0.342345
vt 0.290685 0.135579
vt 0.289840 0.349277
vt 0.211698 0.345933
vt 0.250000 0.118227
vn 0.3597 0.6946 -0.6230
vn 0.7194 0.6946 0.0000
vn 0.3597 0.6946 0.6230
vn -0.3597 0.6946 0.6230
vn 0.0000 -1.0000 -0.0000
vn -0.7194 0.6946 0.0000
vn -0.3597 0.6946 -0.6230
g Montain_Cone.001_Mountain
usemtl Mountain
s off
f 1/1/1 11/2/1 23/3/1
f 2/4/2 18/5/2 3/6/2
f 3/6/3 16/7/3 4/8/3
f 4/8/4 19/9/4 5/10/4
f 1/11/5 2/12/5 3/13/5 4/14/5 5/15/5 6/16/5
f 5/10/6 17/17/6 6/18/6
f 6/18/7 15/19/7 1/1/7
f 12/20/2 18/5/2 7/21/2
f 17/17/6 7/21/6 13/22/6
f 15/19/7 13/22/7 7/21/7
f 20/23/4 7/21/4 10/24/4
f 9/25/1 22/26/1 7/21/1
f 16/7/3 7/21/3 21/27/3
f 10/24/4 19/9/4 20/23/4
f 2/4/1 23/3/1 24/28/1 22/26/1
f 3/6/2 18/5/2 12/20/2
f 18/5/2 2/4/2 9/25/2
f 6/18/6 17/17/6 13/22/6
f 17/17/6 5/10/6 10/24/6
f 4/8/3 16/7/3 21/27/3
f 16/7/3 3/6/3 12/20/3
f 1/1/7 15/19/7 14/29/7
f 14/29/7 11/2/7 1/1/7
f 15/19/7 6/18/7 13/22/7
f 5/10/4 19/9/4 10/24/4
f 20/23/4 19/9/4 4/8/4 8/30/4
f 21/27/3 8/30/3 4/8/3
f 17/17/6 10/24/6 7/21/6
f 21/27/3 7/21/3 8/30/3
f 7/21/3 16/7/3 12/20/3
f 22/26/1 9/25/1 2/4/1
f 7/21/1 22/26/1 24/28/1
f 23/3/1 2/4/1 1/1/1
f 24/28/1 11/2/1 7/21/1
f 24/28/1 23/3/1 11/2/1
f 7/21/2 18/5/2 9/25/2
f 7/21/7 11/2/7 14/29/7
f 14/29/7 15/19/7 7/21/7
f 20/23/4 8/30/4 7/21/4
o Snow_Cone
v -0.002324 5.010649 -3.417058
v 2.838588 5.131920 -1.646077
v 2.567124 5.418973 1.475266
v -0.004408 5.407374 2.973497
v -2.553397 5.426453 1.479463
v -2.842077 5.129023 -1.647280
v -0.000003 8.041325 0.000016
v -0.002229 4.857117 -3.279295
v 2.722525 4.978469 -1.571696
v 2.445811 5.265497 1.409863
v -0.004484 5.253879 2.835696
v -2.432147 5.273014 1.413852
v -2.725996 4.975565 -1.572943
v 0.000003 7.835042 -0.000016
vt 0.250000 0.490000
vt 0.250000 0.250000
vt 0.457846 0.370000
vt 0.457846 0.130000
vt 0.250000 0.010000
vt 0.042154 0.130000
vt 0.042154 0.370000
vt 0.250000 0.490000
vt 0.457846 0.370000
vt 0.250000 0.250000
vt 0.457846 0.130000
vt 0.250000 0.010000
vt 0.042154 0.130000
vt 0.042154 0.370000
vn 0.3567 0.6988 -0.6200
vn 0.7152 0.6989 -0.0021
vn 0.3578 0.6987 0.6195
vn -0.3575 0.6993 0.6189
vn -0.7156 0.6985 -0.0004
vn -0.3571 0.6989 -0.6197
vn -0.3621 -0.6899 0.6268
vn -0.7241 -0.6897 -0.0008
vn -0.3620 -0.6891 -0.6278
vn 0.3619 -0.6897 -0.6272
vn 0.7245 -0.6892 -0.0026
vn 0.3624 -0.6901 0.6264
vn 0.4362 -0.6173 -0.6548
vn 0.7864 -0.6044 0.1275
vn 0.4006 -0.6106 0.6831
vn -0.4038 -0.6108 0.6811
vn -0.7858 -0.6039 0.1336
vn -0.4356 -0.6174 -0.6551
g Snow_Cone_Snow
usemtl Snow
s off
f 25/31/8 31/32/8 26/33/8
f 26/33/9 31/32/9 27/34/9
f 27/34/10 31/32/10 28/35/10
f 28/35/11 31/32/11 29/36/11
f 29/36/12 31/32/12 30/37/12
f 30/37/13 31/32/13 25/31/13
f 32/38/14 33/39/14 38/40/14
f 33/39/15 34/41/15 38/40/15
f 34/41/16 35/42/16 38/40/16
f 35/42/17 36/43/17 38/40/17
f 36/43/18 37/44/18 38/40/18
f 37/44/19 32/38/19 38/40/19
f 25/31/20 26/33/20 33/39/20 32/38/20
f 26/33/21 27/34/21 34/41/21 33/39/21
f 27/34/22 28/35/22 35/42/22 34/41/22
f 28/35/23 29/36/23 36/43/23 35/42/23
f 29/36/24 30/37/24 37/44/24 36/43/24
f 30/37/25 25/31/25 32/38/25 37/44/25
